*** Settings ***
Library           Selenium2Library

*** Test Cases ***
TestCaseDemo
    Open Browser    https://www.google.com/
    Input Text    lst-ib    wac
    Click Element    btnK
    sleep    10s
    Close All Browsers
